<svg xmlns="http://www.w3.org/2000/svg" width="30" height="30" viewBox="0 0 30 30">
    <g fill="none" fill-rule="evenodd" stroke="#FFF" stroke-width="2">
        <path d="M4 7h22v16H4z"/>
        <path d="M4 10l11 7 10.807-7"/>
    </g>
</svg>
