<svg xmlns="http://www.w3.org/2000/svg" width="30" height="30" viewBox="0 0 30 30">
    <g fill="none" fill-rule="evenodd" stroke="#FF744C" stroke-linecap="round">
        <path d="M15 5v20M25 15H5"/>
    </g>
</svg>
