<svg xmlns="http://www.w3.org/2000/svg" width="40" height="40" viewBox="0 0 40 40">
    <g fill="none" fill-rule="evenodd">
        <path fill="#E31E36" d="M11 6h13l8 8v17a3 3 0 0 1-3 3H11a3 3 0 0 1-3-3V9a3 3 0 0 1 3-3z"/>
        <path fill="#FFF" d="M24 6v6a2 2 0 0 0 2 2h6" opacity=".8"/>
        <text fill="#FFF" font-family="Montserrat-Bold, Montserrat" font-size="11" font-weight="bold">
            <tspan x="10.271" y="28">pdf</tspan>
        </text>
    </g>
</svg>
