<svg xmlns="http://www.w3.org/2000/svg" width="20" height="20" viewBox="0 0 20 20">
    <path fill="#000" fill-rule="evenodd" d="M10 17c.917 0 5.5-4.563 5.5-8.5C15.5 5.6 13.038 3 10 3S4.5 5.6 4.5 8.5c0 3.938 4.583 8.5 5.5 8.5zm0-6.5a2 2 0 1 0 0-4 2 2 0 0 0 0 4z" opacity=".3"/>
</svg>
