<svg xmlns="http://www.w3.org/2000/svg" width="30" height="30" viewBox="0 0 30 30">
    <path fill="none" fill-rule="evenodd" stroke="#FFF" stroke-width="2" d="M10.085 6.836c-.369-.795-.757-.81-1.107-.825C8.69 6 8.362 6 8.035 6c-.329 0-.862.12-1.313.597C6.272 7.075 5 8.23 5 10.58s1.763 4.62 2.01 4.938c.245.319 3.403 5.294 8.405 7.208 4.157 1.59 5.003 1.274 5.905 1.195.902-.08 2.911-1.155 3.321-2.27.41-1.115.41-2.07.287-2.27-.123-.2-.45-.319-.943-.558-.492-.238-2.911-1.394-3.362-1.553-.451-.16-.78-.239-1.108.24-.328.477-1.27 1.552-1.557 1.87-.287.32-.574.36-1.067.12-.492-.239-2.077-.742-3.957-2.37-1.462-1.265-2.45-2.828-2.737-3.306-.287-.477-.03-.736.216-.974.22-.214.492-.558.738-.836.246-.28.328-.478.492-.797.164-.319.082-.597-.041-.836s-1.08-2.6-1.517-3.545"/>
</svg>
